<svg xmlns="http://www.w3.org/2000/svg" width="65" height="65" viewBox="0 0 65 65">
  <g fill="none" fill-rule="evenodd">
    <circle cx="32" cy="33" r="32" fill="#53B868"/>
    <polyline stroke="#FFF" stroke-linecap="round" stroke-linejoin="round" stroke-width="6" points="17.518 30.417 35.939 48.839 58.703 7.26" transform="rotate(10 38.11 28.05)"/>
  </g>
</svg>
